{
    "items": [
      {
        "external_urls": {
          "spotify": "https://open.spotify.com/artist/07XSN3sPlIlB2L2XNcTwJw"
        },
        "followers": {
          "href": null,
          "total": 4550176
        },
        "genres": [
          "album rock",
          "classic rock",
          "glam rock",
          "hard rock",
          "metal",
          "rock"
        ],
        "href": "https://api.spotify.com/v1/artists/07XSN3sPlIlB2L2XNcTwJw",
        "id": "07XSN3sPlIlB2L2XNcTwJw",
        "images": [
          {
            "height": 640,
            "url": "https://i.scdn.co/image/74925968b2f76706c62bed18af92ef43241e7756",
            "width": 640
          },
          {
            "height": 320,
            "url": "https://i.scdn.co/image/052ab4e57e4f0d9d75f3d1f6d00a9dd31b456c42",
            "width": 320
          },
          {
            "height": 160,
            "url": "https://i.scdn.co/image/ed0b1f0b79105b0ea5518faab948b9f5882d5f1e",
            "width": 160
          }
        ],
        "name": "KISS",
        "popularity": 74,
        "type": "artist",
        "uri": "spotify:artist:07XSN3sPlIlB2L2XNcTwJw"
      }
    ],
    "total": 50,
    "limit": 1,
    "offset": 0,
    "previous": null,
    "href": "https://api.spotify.com/v1/me/top/artists?limit=1&offset=0&time_range=long_term",
    "next": "https://api.spotify.com/v1/me/top/artists?limit=1&offset=1&time_range=long_term"
  }