{
  "items": [
    {
      "external_urls": {
        "spotify": "https://open.spotify.com/artist/5INjqkS1o8h1imAzPqGZBb"
      },
      "followers": {
        "href": null,
        "total": 3612856
      },
      "genres": [
        "australian psych",
        "neo-psychedelic"
      ],
      "href": "https://api.spotify.com/v1/artists/5INjqkS1o8h1imAzPqGZBb",
      "id": "5INjqkS1o8h1imAzPqGZBb",
      "images": [
        {
          "height": 640,
          "url": "https://i.scdn.co/image/a7cb9fc6df8b68fdb071156add87284c3c941a04",
          "width": 640
        },
        {
          "height": 320,
          "url": "https://i.scdn.co/image/135442e5a19db953eb2f48ff39ff8c4c985dc7e1",
          "width": 320
        },
        {
          "height": 160,
          "url": "https://i.scdn.co/image/edc87a3af030da0e1d671d20d734528c8d4e880e",
          "width": 160
        }
      ],
      "name": "Tame Impala",
      "popularity": 84,
      "type": "artist",
      "uri": "spotify:artist:5INjqkS1o8h1imAzPqGZBb"
    },
    {
      "external_urls": {
        "spotify": "https://open.spotify.com/artist/4pejUc4iciQfgdX6OKulQn"
      },
      "followers": {
        "href": null,
        "total": 2234634
      },
      "genres": [
        "alternative metal",
        "alternative rock",
        "blues rock",
        "garage rock",
        "modern rock",
        "nu metal",
        "palm desert scene",
        "post-grunge",
        "rock",
        "stoner metal",
        "stoner rock"
      ],
      "href": "https://api.spotify.com/v1/artists/4pejUc4iciQfgdX6OKulQn",
      "id": "4pejUc4iciQfgdX6OKulQn",
      "images": [
        {
          "height": 640,
          "url": "https://i.scdn.co/image/905233ed063a6350613c571e8508b65c3ae98080",
          "width": 640
        },
        {
          "height": 320,
          "url": "https://i.scdn.co/image/bb87dad4464becc47d17eeeb1ccc0dd1d0bf22d9",
          "width": 320
        },
        {
          "height": 160,
          "url": "https://i.scdn.co/image/e78c5b9700108b06482f7b1677120c6c565e8b0d",
          "width": 160
        }
      ],
      "name": "Queens of the Stone Age",
      "popularity": 73,
      "type": "artist",
      "uri": "spotify:artist:4pejUc4iciQfgdX6OKulQn"
    },
    {
      "external_urls": {
        "spotify": "https://open.spotify.com/artist/6olE6TJLqED3rqDCT0FyPh"
      },
      "followers": {
        "href": null,
        "total": 10637982
      },
      "genres": [
        "alternative rock",
        "grunge",
        "permanent wave",
        "post-grunge",
        "rock"
      ],
      "href": "https://api.spotify.com/v1/artists/6olE6TJLqED3rqDCT0FyPh",
      "id": "6olE6TJLqED3rqDCT0FyPh",
      "images": [
        {
          "height": 1057,
          "url": "https://i.scdn.co/image/84282c28d851a700132356381fcfbadc67ff498b",
          "width": 1000
        },
        {
          "height": 677,
          "url": "https://i.scdn.co/image/a4e10b79a642e9891383448cbf37d7266a6883d6",
          "width": 640
        },
        {
          "height": 211,
          "url": "https://i.scdn.co/image/42ae0f180f16e2f21c1f2212717fc436f5b95451",
          "width": 200
        },
        {
          "height": 68,
          "url": "https://i.scdn.co/image/e797ad36d56c3fc8fa06c6fe91263a15bf8391b8",
          "width": 64
        }
      ],
      "name": "Nirvana",
      "popularity": 82,
      "type": "artist",
      "uri": "spotify:artist:6olE6TJLqED3rqDCT0FyPh"
    },
    {
      "external_urls": {
        "spotify": "https://open.spotify.com/artist/0epOFNiUfyON9EYx7Tpr6V"
      },
      "followers": {
        "href": null,
        "total": 3202529
      },
      "genres": [
        "alternative rock",
        "garage rock",
        "modern rock",
        "permanent wave",
        "rock"
      ],
      "href": "https://api.spotify.com/v1/artists/0epOFNiUfyON9EYx7Tpr6V",
      "id": "0epOFNiUfyON9EYx7Tpr6V",
      "images": [
        {
          "height": 640,
          "url": "https://i.scdn.co/image/0dd6b94b32c9ec5400d5f8dd4d8be075a6627862",
          "width": 640
        },
        {
          "height": 320,
          "url": "https://i.scdn.co/image/2132488612fb623fc935055a4e88781cb57f3c5b",
          "width": 320
        },
        {
          "height": 160,
          "url": "https://i.scdn.co/image/fd30f379cdc1f962c04b1775fdabf1b2e0ea085f",
          "width": 160
        }
      ],
      "name": "The Strokes",
      "popularity": 82,
      "type": "artist",
      "uri": "spotify:artist:0epOFNiUfyON9EYx7Tpr6V"
    },
    {
      "external_urls": {
        "spotify": "https://open.spotify.com/artist/6bUJpbekaIlq2fT5FMV2mQ"
      },
      "followers": {
        "href": null,
        "total": 198670
      },
      "genres": [
        "indie garage rock",
        "indie punk",
        "indie rock",
        "indie surf",
        "lo-fi",
        "noise pop",
        "noise rock",
        "nu gaze",
        "san diego indie"
      ],
      "href": "https://api.spotify.com/v1/artists/6bUJpbekaIlq2fT5FMV2mQ",
      "id": "6bUJpbekaIlq2fT5FMV2mQ",
      "images": [
        {
          "height": 640,
          "url": "https://i.scdn.co/image/479b888bf3ba0133678091a7e45e4b76066209f4",
          "width": 640
        },
        {
          "height": 320,
          "url": "https://i.scdn.co/image/abfd3e7ec60a6a0e17ebc831c808a15acb53f049",
          "width": 320
        },
        {
          "height": 160,
          "url": "https://i.scdn.co/image/5719151a3009564e65c62768699911e0b5e18f0c",
          "width": 160
        }
      ],
      "name": "Wavves",
      "popularity": 53,
      "type": "artist",
      "uri": "spotify:artist:6bUJpbekaIlq2fT5FMV2mQ"
    },
    {
      "external_urls": {
        "spotify": "https://open.spotify.com/artist/7Ln80lUS6He07XvHI8qqHH"
      },
      "followers": {
        "href": null,
        "total": 9193919
      },
      "genres": [
        "garage rock",
        "modern rock",
        "permanent wave",
        "rock",
        "sheffield indie"
      ],
      "href": "https://api.spotify.com/v1/artists/7Ln80lUS6He07XvHI8qqHH",
      "id": "7Ln80lUS6He07XvHI8qqHH",
      "images": [
        {
          "height": 640,
          "url": "https://i.scdn.co/image/ed0552e9746ed2bbf04ae4bcb5525700ca31522d",
          "width": 640
        },
        {
          "height": 320,
          "url": "https://i.scdn.co/image/b435e99aa7f1e27db56b6a4dc9df85e5636b22d6",
          "width": 320
        },
        {
          "height": 160,
          "url": "https://i.scdn.co/image/73c4e49abed008fe0c5e4f1437b8b486c7670ecd",
          "width": 160
        }
      ],
      "name": "Arctic Monkeys",
      "popularity": 84,
      "type": "artist",
      "uri": "spotify:artist:7Ln80lUS6He07XvHI8qqHH"
    },
    {
      "external_urls": {
        "spotify": "https://open.spotify.com/artist/09kXLeOXRyfNQMXRaDO4qA"
      },
      "followers": {
        "href": null,
        "total": 78070
      },
      "genres": [
        "art pop",
        "indie rock",
        "indie soul",
        "uk alternative pop"
      ],
      "href": "https://api.spotify.com/v1/artists/09kXLeOXRyfNQMXRaDO4qA",
      "id": "09kXLeOXRyfNQMXRaDO4qA",
      "images": [
        {
          "height": 640,
          "url": "https://i.scdn.co/image/560a37dd2a626627a37c9b68b7a090c91fa223e4",
          "width": 640
        },
        {
          "height": 320,
          "url": "https://i.scdn.co/image/de3fccc2309e291e51420d1d81395a6ad6096429",
          "width": 320
        },
        {
          "height": 160,
          "url": "https://i.scdn.co/image/fd94335b982e85dbfb5a609c2edbf141b1e0c596",
          "width": 160
        }
      ],
      "name": "Nilüfer Yanya",
      "popularity": 56,
      "type": "artist",
      "uri": "spotify:artist:09kXLeOXRyfNQMXRaDO4qA"
    },
    {
      "external_urls": {
        "spotify": "https://open.spotify.com/artist/53zPVFS5lrh8IAwsr7JdL1"
      },
      "followers": {
        "href": null,
        "total": 53897
      },
      "genres": [
        "filter house",
        "french indietronica"
      ],
      "href": "https://api.spotify.com/v1/artists/53zPVFS5lrh8IAwsr7JdL1",
      "id": "53zPVFS5lrh8IAwsr7JdL1",
      "images": [
        {
          "height": 640,
          "url": "https://i.scdn.co/image/975c06c45b5cd054f828ae251a802e5dec9f9246",
          "width": 640
        },
        {
          "height": 320,
          "url": "https://i.scdn.co/image/32629e71f5d82ed8906d981a96aa03c8fc58af7b",
          "width": 320
        },
        {
          "height": 160,
          "url": "https://i.scdn.co/image/c727963c09b34955e0aaae3bc761bb6ef460c936",
          "width": 160
        }
      ],
      "name": "Salut C'est Cool",
      "popularity": 49,
      "type": "artist",
      "uri": "spotify:artist:53zPVFS5lrh8IAwsr7JdL1"
    },
    {
      "external_urls": {
        "spotify": "https://open.spotify.com/artist/0Ak6DLKHtpR6TEEnmcorKA"
      },
      "followers": {
        "href": null,
        "total": 594356
      },
      "genres": [
        "english indie rock",
        "garage rock",
        "indie pop",
        "indie rock",
        "modern alternative rock",
        "modern rock",
        "new rave",
        "rock"
      ],
      "href": "https://api.spotify.com/v1/artists/0Ak6DLKHtpR6TEEnmcorKA",
      "id": "0Ak6DLKHtpR6TEEnmcorKA",
      "images": [
        {
          "height": 640,
          "url": "https://i.scdn.co/image/17d2317bd7fd890d8a052ddfdb1dd8ae2981411f",
          "width": 640
        },
        {
          "height": 320,
          "url": "https://i.scdn.co/image/9e6c7b3384946ee60bdb05e62932ef2bd4b1488d",
          "width": 320
        },
        {
          "height": 160,
          "url": "https://i.scdn.co/image/54a7252b0bea8738c7df29daa96ca631b162d76c",
          "width": 160
        }
      ],
      "name": "The Vaccines",
      "popularity": 63,
      "type": "artist",
      "uri": "spotify:artist:0Ak6DLKHtpR6TEEnmcorKA"
    },
    {
      "external_urls": {
        "spotify": "https://open.spotify.com/artist/2Z7UcsdweVlRbAk5wH5fsf"
      },
      "followers": {
        "href": null,
        "total": 638779
      },
      "genres": [
        "baroque pop",
        "garage rock",
        "indie rock",
        "modern rock",
        "new rave",
        "rock",
        "sheffield indie"
      ],
      "href": "https://api.spotify.com/v1/artists/2Z7UcsdweVlRbAk5wH5fsf",
      "id": "2Z7UcsdweVlRbAk5wH5fsf",
      "images": [
        {
          "height": 1000,
          "url": "https://i.scdn.co/image/1e721c9502da1663fe9dd0b9f8a90519546f0a9f",
          "width": 1000
        },
        {
          "height": 640,
          "url": "https://i.scdn.co/image/c3d3f098f92fbacb7a16ab5ca1d801228b26e1b2",
          "width": 640
        },
        {
          "height": 200,
          "url": "https://i.scdn.co/image/ef0c42ed770ea0b67e073b2796c5e6eb2dd937cc",
          "width": 200
        },
        {
          "height": 64,
          "url": "https://i.scdn.co/image/df50b63ee9d08f5aa7a93cec0f26fcc1846ca20f",
          "width": 64
        }
      ],
      "name": "The Last Shadow Puppets",
      "popularity": 64,
      "type": "artist",
      "uri": "spotify:artist:2Z7UcsdweVlRbAk5wH5fsf"
    },
    {
      "external_urls": {
        "spotify": "https://open.spotify.com/artist/4Z8W4fKeB5YxbusRsdQVPb"
      },
      "followers": {
        "href": null,
        "total": 5092832
      },
      "genres": [
        "alternative rock",
        "art rock",
        "melancholia",
        "oxford indie",
        "permanent wave",
        "rock"
      ],
      "href": "https://api.spotify.com/v1/artists/4Z8W4fKeB5YxbusRsdQVPb",
      "id": "4Z8W4fKeB5YxbusRsdQVPb",
      "images": [
        {
          "height": 640,
          "url": "https://i.scdn.co/image/afcd616e1ef2d2786f47b3b4a8a6aeea24a72adc",
          "width": 640
        },
        {
          "height": 320,
          "url": "https://i.scdn.co/image/563754af10b3d9f9f62a3458e699f58c4a02870f",
          "width": 320
        },
        {
          "height": 160,
          "url": "https://i.scdn.co/image/4067ea225d8b42fa6951857d3af27dd07d60f3c6",
          "width": 160
        }
      ],
      "name": "Radiohead",
      "popularity": 81,
      "type": "artist",
      "uri": "spotify:artist:4Z8W4fKeB5YxbusRsdQVPb"
    },
    {
      "external_urls": {
        "spotify": "https://open.spotify.com/artist/12Chz98pHFMPJEknJQMWvI"
      },
      "followers": {
        "href": null,
        "total": 5737837
      },
      "genres": [
        "modern rock",
        "permanent wave",
        "piano rock",
        "post-grunge",
        "rock"
      ],
      "href": "https://api.spotify.com/v1/artists/12Chz98pHFMPJEknJQMWvI",
      "id": "12Chz98pHFMPJEknJQMWvI",
      "images": [
        {
          "height": 640,
          "url": "https://i.scdn.co/image/12450535621500d6e519275f2c52d49c00a0168f",
          "width": 640
        },
        {
          "height": 320,
          "url": "https://i.scdn.co/image/17f00ec7613d733f2dd88de8f2c1628ea5f9adde",
          "width": 320
        },
        {
          "height": 160,
          "url": "https://i.scdn.co/image/2da69b7920c065afc835124c4786025820adab8c",
          "width": 160
        }
      ],
      "name": "Muse",
      "popularity": 79,
      "type": "artist",
      "uri": "spotify:artist:12Chz98pHFMPJEknJQMWvI"
    },
    {
      "external_urls": {
        "spotify": "https://open.spotify.com/artist/3AA28KZvwAUcZuOKwyblJQ"
      },
      "followers": {
        "href": null,
        "total": 5442661
      },
      "genres": [
        "alternative hip hop",
        "art pop"
      ],
      "href": "https://api.spotify.com/v1/artists/3AA28KZvwAUcZuOKwyblJQ",
      "id": "3AA28KZvwAUcZuOKwyblJQ",
      "images": [
        {
          "height": 640,
          "url": "https://i.scdn.co/image/68826fdbd15a937639a83f7d2ffa6d6e5640fb3b",
          "width": 640
        },
        {
          "height": 320,
          "url": "https://i.scdn.co/image/03971da8c9249795282f8a97a41a1a72f321823c",
          "width": 320
        },
        {
          "height": 160,
          "url": "https://i.scdn.co/image/b9e833015f45a6e9ad958fd4d6be9819f5ea9827",
          "width": 160
        }
      ],
      "name": "Gorillaz",
      "popularity": 82,
      "type": "artist",
      "uri": "spotify:artist:3AA28KZvwAUcZuOKwyblJQ"
    },
    {
      "external_urls": {
        "spotify": "https://open.spotify.com/artist/3Sz7ZnJQBIHsXLUSo0OQtM"
      },
      "followers": {
        "href": null,
        "total": 1430807
      },
      "genres": [
        "edmonton indie"
      ],
      "href": "https://api.spotify.com/v1/artists/3Sz7ZnJQBIHsXLUSo0OQtM",
      "id": "3Sz7ZnJQBIHsXLUSo0OQtM",
      "images": [
        {
          "height": 640,
          "url": "https://i.scdn.co/image/e3d3e28c604a1c86e796e0d2aa7d4dc249f62e6f",
          "width": 640
        },
        {
          "height": 320,
          "url": "https://i.scdn.co/image/2be26e2a2f49947fb61c31984f27bb1497319dad",
          "width": 320
        },
        {
          "height": 160,
          "url": "https://i.scdn.co/image/7806af9f06526b3ca2e33ecae7cb02c8c6bcc221",
          "width": 160
        }
      ],
      "name": "Mac DeMarco",
      "popularity": 77,
      "type": "artist",
      "uri": "spotify:artist:3Sz7ZnJQBIHsXLUSo0OQtM"
    },
    {
      "external_urls": {
        "spotify": "https://open.spotify.com/artist/538TfjnJpRXI80MHYWfKlo"
      },
      "followers": {
        "href": null,
        "total": 64034
      },
      "genres": [
        "chanson",
        "french indie pop",
        "french indietronica",
        "french rock",
        "nouvelle chanson francaise"
      ],
      "href": "https://api.spotify.com/v1/artists/538TfjnJpRXI80MHYWfKlo",
      "id": "538TfjnJpRXI80MHYWfKlo",
      "images": [
        {
          "height": 640,
          "url": "https://i.scdn.co/image/5730f38732f7fd0604d0e20653025bb7f77bc40c",
          "width": 640
        },
        {
          "height": 320,
          "url": "https://i.scdn.co/image/46bf7d3c86ab46bf8c5829a15e0009d83548cc45",
          "width": 320
        },
        {
          "height": 160,
          "url": "https://i.scdn.co/image/1b1104b1c66f150ada27b355553993a42b5c8511",
          "width": 160
        }
      ],
      "name": "Feu! Chatterton",
      "popularity": 50,
      "type": "artist",
      "uri": "spotify:artist:538TfjnJpRXI80MHYWfKlo"
    },
    {
      "external_urls": {
        "spotify": "https://open.spotify.com/artist/2S5hlvw4CMtMGswFtfdK15"
      },
      "followers": {
        "href": null,
        "total": 979861
      },
      "genres": [
        "brighton indie",
        "garage rock",
        "modern alternative rock",
        "modern blues rock",
        "modern hard rock",
        "modern rock",
        "rock"
      ],
      "href": "https://api.spotify.com/v1/artists/2S5hlvw4CMtMGswFtfdK15",
      "id": "2S5hlvw4CMtMGswFtfdK15",
      "images": [
        {
          "height": 640,
          "url": "https://i.scdn.co/image/32edab67a5aaa296a2e8bc76cd59e6e49f351f4f",
          "width": 640
        },
        {
          "height": 320,
          "url": "https://i.scdn.co/image/075bb2a2ed24464a91e5b97063c610363869bd1b",
          "width": 320
        },
        {
          "height": 160,
          "url": "https://i.scdn.co/image/7979c44d11b7795550f8c2801d4073502de7ed1f",
          "width": 160
        }
      ],
      "name": "Royal Blood",
      "popularity": 67,
      "type": "artist",
      "uri": "spotify:artist:2S5hlvw4CMtMGswFtfdK15"
    },
    {
      "external_urls": {
        "spotify": "https://open.spotify.com/artist/7oPftvlwr6VrsViSDV7fJY"
      },
      "followers": {
        "href": null,
        "total": 10481509
      },
      "genres": [
        "permanent wave",
        "punk"
      ],
      "href": "https://api.spotify.com/v1/artists/7oPftvlwr6VrsViSDV7fJY",
      "id": "7oPftvlwr6VrsViSDV7fJY",
      "images": [
        {
          "height": 640,
          "url": "https://i.scdn.co/image/41778f8778469286e6aa9ef751cdc8e942bc0a6f",
          "width": 640
        },
        {
          "height": 320,
          "url": "https://i.scdn.co/image/8e7cb070f12ae05f76711cf95487752a3f685465",
          "width": 320
        },
        {
          "height": 160,
          "url": "https://i.scdn.co/image/50579fcc433000fb41217742a5072240d9e93bf9",
          "width": 160
        }
      ],
      "name": "Green Day",
      "popularity": 83,
      "type": "artist",
      "uri": "spotify:artist:7oPftvlwr6VrsViSDV7fJY"
    },
    {
      "external_urls": {
        "spotify": "https://open.spotify.com/artist/4zYQWYmtimAEmI6WWEzGfO"
      },
      "followers": {
        "href": null,
        "total": 354898
      },
      "genres": [
        "alternative metal",
        "alternative rock",
        "blues rock",
        "garage rock",
        "modern alternative rock",
        "modern rock",
        "post-grunge",
        "punk blues",
        "rock",
        "stoner rock",
        "supergroup"
      ],
      "href": "https://api.spotify.com/v1/artists/4zYQWYmtimAEmI6WWEzGfO",
      "id": "4zYQWYmtimAEmI6WWEzGfO",
      "images": [
        {
          "height": 1500,
          "url": "https://i.scdn.co/image/7e78d34c33af8c3555f8eec0f8823cbde00ae2cc",
          "width": 1000
        },
        {
          "height": 960,
          "url": "https://i.scdn.co/image/a1792d5eb9cee6c5faaee1b8aafa1cb7205641ca",
          "width": 640
        },
        {
          "height": 300,
          "url": "https://i.scdn.co/image/88810528b3dbeb136c03b1db10947e74075695ad",
          "width": 200
        },
        {
          "height": 96,
          "url": "https://i.scdn.co/image/5f1e9c2ef08edcebf4c028c85fccc6d86d7e22ce",
          "width": 64
        }
      ],
      "name": "Them Crooked Vultures",
      "popularity": 55,
      "type": "artist",
      "uri": "spotify:artist:4zYQWYmtimAEmI6WWEzGfO"
    },
    {
      "external_urls": {
        "spotify": "https://open.spotify.com/artist/11wRdbnoYqRddKBrpHt4Ue"
      },
      "followers": {
        "href": null,
        "total": 1306809
      },
      "genres": [
        "alternative rock",
        "britpop",
        "garage rock",
        "indie rock",
        "leicester indie",
        "modern rock",
        "rock"
      ],
      "href": "https://api.spotify.com/v1/artists/11wRdbnoYqRddKBrpHt4Ue",
      "id": "11wRdbnoYqRddKBrpHt4Ue",
      "images": [
        {
          "height": 640,
          "url": "https://i.scdn.co/image/8ef02a528dfa5496a410aa80e8b0316574ca95b7",
          "width": 640
        },
        {
          "height": 320,
          "url": "https://i.scdn.co/image/0819d4451bf042bc0949e3a04216c7ddf11047b2",
          "width": 320
        },
        {
          "height": 160,
          "url": "https://i.scdn.co/image/cdc16ad63b3377c40a547ad3bc0851d4be44adec",
          "width": 160
        }
      ],
      "name": "Kasabian",
      "popularity": 68,
      "type": "artist",
      "uri": "spotify:artist:11wRdbnoYqRddKBrpHt4Ue"
    },
    {
      "external_urls": {
        "spotify": "https://open.spotify.com/artist/6XYvaoDGE0VmRt83Jss9Sn"
      },
      "followers": {
        "href": null,
        "total": 483780
      },
      "genres": [
        "australian indie",
        "australian psych",
        "neo-psychedelic"
      ],
      "href": "https://api.spotify.com/v1/artists/6XYvaoDGE0VmRt83Jss9Sn",
      "id": "6XYvaoDGE0VmRt83Jss9Sn",
      "images": [
        {
          "height": 640,
          "url": "https://i.scdn.co/image/9c6df626efc509fb870a518918c7b77d808ad482",
          "width": 640
        },
        {
          "height": 320,
          "url": "https://i.scdn.co/image/9868eb34aabc0e1d0a0252c15a0def1033d33825",
          "width": 320
        },
        {
          "height": 160,
          "url": "https://i.scdn.co/image/c09c15a6056b2833c36ca59e20bed4d5b2b3a9e7",
          "width": 160
        }
      ],
      "name": "King Gizzard & The Lizard Wizard",
      "popularity": 68,
      "type": "artist",
      "uri": "spotify:artist:6XYvaoDGE0VmRt83Jss9Sn"
    }
  ],
  "total": 50,
  "limit": 20,
  "offset": 0,
  "href": "https://api.spotify.com/v1/me/top/artists",
  "previous": null,
  "next": "https://api.spotify.com/v1/me/top/artists?limit=20&offset=20"
}